%YAML 1.1
%TAG !u! tag:unity3d.com,2011:
--- !u!1045 &1
EditorBuildSettings:
  m_ObjectHideFlags: 0
  serializedVersion: 2
  m_Scenes:
  - enabled: 0
    path: 
    guid: 00000000000000000000000000000000
  - enabled: 1
    path: Assets/Scenes/MainMenu.unity
    guid: 6665942e98bb0354ebc4ae8b186ba8b2
  - enabled: 1
    path: Assets/Scenes/BubbleMiniGame.unity
    guid: f48f545a3e5055e43ba0adc0e318cf54
  m_configObjects: {}
